{
  "profiles": {
    "UtilisateursMicroService": {
      "commandName": "Project",
      "launchBrowser": true,
      "launchUrl": "swagger",
      "environmentVariables": {
        "ASPNETCORE_ENVIRONMENT": "Development"
      },
      "dotnetRunMessages": true,
      "applicationUrl": "https://localhost:7089;http://localhost:5089"
    },
    "IIS Express": {
      "commandName": "IISExpress",
      "launchBrowser": true,
      "launchUrl": "swagger",
      "environmentVariables": {
        "ASPNETCORE_ENVIRONMENT": "Development"
      }
    },
    "Docker": {
        "commandName": "Docker",
        "launchBrowser": true,
        "launchUrl": "{Scheme}://{ServiceHost}:{ServicePort}/swagger",
        "publishAllPorts": true,
        "useSSL": false
    }
  },
  "$schema": "https://json.schemastore.org/launchsettings.json",
  "iisSettings": {
    "windowsAuthentication": false,
    "anonymousAuthentication": true,
    "iisExpress": {
      "applicationUrl": "http://localhost:20370",
      "sslPort": 44329
    }
  }
}